	principal component 1	principal component 2	target
NA18972	-10.83155238771362	-0.6878380013659005	East Asian
NA19002	-12.203837022163642	-1.334321481862834	East Asian
NA19007	-10.393773527885038	-0.38606760525078815	East Asian
NA18631	-13.693198184261798	-0.9022597189000243	East Asian
NA18530	-13.227824734963539	-0.8326271665758017	East Asian
NA18539	-10.885188048414761	-2.5453747934260327	East Asian
NA18877	48.25225161984594	-56.84993710813435	African
NA18488	49.912807222276314	9.082954858237793	African
NA18907	40.22040101679651	17.043665069789167	African
NA19020	45.41716186319821	-28.84305244945283	African
NA19310	48.773800523501656	67.12537600126774	African
NA19036	28.554529297889914	-8.84446828311033	African
HG03644	-10.781710502542104	-0.9496549364338762	South Asian
HG03692	-9.33152924016042	-2.5813146597773042	South Asian
HG03740	-11.39759398412856	0.9882851782220898	South Asian
HG01593	-13.208747565362279	-1.8623991871265884	South Asian
HG02687	-12.641610410886356	8.087613015535407	South Asian
HG02601	-10.168535063076101	-2.1908961974926253	South Asian
HG01571	-12.865073429724376	-1.6291806592596487	American
HG01893	-3.870456262165986	-6.396585948937058	American
HG01932	-12.04459493999365	-0.1967538266072527	American
HG00102	-15.88829327898532	1.8166753752013833	European
HG00253	-13.767827261415544	1.5563493418483592	European
HG00143	-12.8076196440754	-0.6554439528642626	European
HG00268	-13.051771572870633	4.628167710583471	European
HG00181	-15.316378334120694	3.0842992648728313	European
HG00280	-11.962001535041274	5.2093775044681365	European
mogsem07	-10.79183461355689	-0.9345873434490647	mogsem
